/* XPM */
static const char * ShowInfo_xpm[] = {
"24 24 142 2",
"  	c #D1D5D1",
". 	c #A3B7D7",
"+ 	c #5F9BFD",
"@ 	c #5D9AFF",
"# 	c #6EB6FC",
"$ 	c #1E63E4",
"% 	c #0087ED",
"& 	c #66A5FD",
"* 	c #64A5FF",
"= 	c #75A9EE",
"- 	c #4C8FE2",
"; 	c #1476D9",
"> 	c #2E63D9",
", 	c #2754D5",
"' 	c #2451D4",
") 	c #2755D6",
"! 	c #2E63D7",
"~ 	c #316DD0",
"{ 	c #F8FDFF",
"] 	c #FDFEFF",
"^ 	c #FFFFFF",
"/ 	c #FEFFFF",
"( 	c #FBFEFF",
"_ 	c #F6FCFF",
": 	c #F1FAFF",
"< 	c #EBF7FF",
"[ 	c #E6F4FF",
"} 	c #E1F1FF",
"| 	c #DBEEFF",
"1 	c #D6EBFF",
"2 	c #D0E7FF",
"3 	c #CAE2FF",
"4 	c #2F6ACE",
"5 	c #FEFEFF",
"6 	c #FBFDFF",
"7 	c #F0FAFF",
"8 	c #E0F1FF",
"9 	c #FAFDFF",
"0 	c #FCFEFF",
"a 	c #F4FBFF",
"b 	c #EFF9FF",
"c 	c #EAF7FF",
"d 	c #E5F3FF",
"e 	c #DFF0FF",
"f 	c #DAEDFF",
"g 	c #D5EAFF",
"h 	c #CFE7FF",
"i 	c #C9E2FF",
"j 	c #F2FBFF",
"k 	c #5F9EFF",
"l 	c #EEF9FF",
"m 	c #F1FBFF",
"n 	c #F3FBFF",
"o 	c #63A4FF",
"p 	c #66A7FF",
"q 	c #ECF8FF",
"r 	c #3465EA",
"s 	c #3464EC",
"t 	c #E5F4FF",
"u 	c #E7F5FF",
"v 	c #E8F6FF",
"w 	c #2960CD",
"x 	c #2851C5",
"y 	c #1440BE",
"z 	c #234EC4",
"A 	c #E2F2FF",
"B 	c #E3F2FF",
"C 	c #306CD0",
"D 	c #F7FCFF",
"E 	c #E1F2FF",
"F 	c #DEF0FF",
"G 	c #D2E8FF",
"H 	c #CEE6FF",
"I 	c #C7E0FF",
"J 	c #C3DDFF",
"K 	c #DDEFFF",
"L 	c #DEEFFF",
"M 	c #DEECFA",
"N 	c #BED6F3",
"O 	c #B7CFF0",
"P 	c #B0C9ED",
"Q 	c #AAC2EA",
"R 	c #A3BBE7",
"S 	c #CEDAF2",
"T 	c #D8ECFF",
"U 	c #F9FDFF",
"V 	c #D1E8FF",
"W 	c #CEE5FF",
"X 	c #C6DFFF",
"Y 	c #C3DCFF",
"Z 	c #306BCF",
"` 	c #BDD9F9",
" .	c #D3E9FF",
"..	c #F4FCFF",
"+.	c #EFFAFF",
"@.	c #CDE5FF",
"#.	c #C2DCFF",
"$.	c #2E6ACC",
"%.	c #D1E1F5",
"&.	c #9CB5E4",
"*.	c #95AEE1",
"=.	c #8FA7DE",
"-.	c #C1CFED",
";.	c #EDF9FF",
">.	c #DCEEFF",
",.	c #CCE4FF",
"'.	c #C5DEFF",
").	c #C2DBFF",
"!.	c #F5FCFF",
"~.	c #CFE6FF",
"{.	c #CBE3FF",
"].	c #C4DEFF",
"^.	c #C1DBFF",
"/.	c #457CD5",
"(.	c #4178D5",
"_.	c #E0F0FF",
":.	c #C0DAFF",
"<.	c #BAD5FF",
"[.	c #B7D3FF",
"}.	c #D9ECFF",
"|.	c #DCEFFF",
"1.	c #BED8FF",
"2.	c #B8D4FF",
"3.	c #B5D1FF",
"4.	c #D7EBFF",
"5.	c #D9EDFF",
"6.	c #C9E1FF",
"7.	c #BFD9FF",
"8.	c #BCD7FF",
"9.	c #B6D2FF",
"0.	c #B3CFFF",
"a.	c #D3E9FE",
"b.	c #D4EAFF",
"c.	c #B9D5FF",
"d.	c #B4D0FF",
"e.	c #B1CEFE",
"f.	c #306BD0",
"g.	c #A1C3F1",
"h.	c #D1E8FE",
"i.	c #8AB0F0",
"j.	c #2F6BCF",
"k.	c #2F6CD0",
"                                                ",
"  . + @ @ @ @ @ @ # $ % # $ % # $ .             ",
"  & * * * * * * * = - ; = - ; = - ;             ",
"  > , ' ' ' ' ' ' ' ' ' ' ' ' ' ) !             ",
"  ~ { ] ^ ^ / ( _ : < [ } | 1 2 3 4             ",
"  ~ { ] ^ ^ 5 6 _ 7 < [ 8 | 1 2 3 4             ",
"  ~ _ 9 ] 5 0 { a b c d e f g h i 4             ",
"  ~ j _ { . k @ @ @ @ @ @ @ @ # $ % # $ % # $ . ",
"  ~ l m n o p p p p p p p p p = - ; = - ; = - ; ",
"  ~ c q l r s s s s s s s s s s s s s s s s s r ",
"  ~ t u v w x y y y y y y y y y y y y y y y z w ",
"  ~ 8 A B C a D 9 ] / ^ ^ ^ / ] : E F G H I J C ",
"  ~ | K L C a D M N O P Q R S ] m E F G H I J C ",
"  ~ 1 T T C n _ U ( ] / ^ / 5 0 7 } L V W X Y C ",
"  Z ` G  .C m ..D U 6 0 ] 0 ( U +.8 K V @.X #.C ",
"  . $.C C C 7 j %.Q R &.*.=.-.D ;.e >.2 ,.'.).C ",
"          C l 7 j a !._ _ _ !.a q L | ~.{.].^.C ",
"          C /.C C C C C C C C C C C C C C C (.C ",
"          C >.K L e _.8 8 8 _.e f V H J :.<.[.C ",
"          C }.f | >.|.K K K |.>.T H ,.^.1.2.3.C ",
"          C 1 4.T }.5.f f f 5.}.g {.6.7.8.9.0.C ",
"          C a.b.g 1 1 1 4.4.1 1 G 6.X 8.c.d.e.C ",
"          f.g.h.G  . . . . . . .~.X J <.[.e.i.j.",
"          . k.C C C C C C C C C C C C C C C f.. "};
