/* XPM */
static const char * ShowInfoIns_xpm[] = {
"24 24 48 1",
" 	c #D1D5D1",
".	c #DCDCDC",
"+	c #D1D1D1",
"@	c #D6D6D6",
"#	c #ADADAD",
"$	c #A3A3A3",
"%	c #D3D3D3",
"&	c #BFBFBF",
"*	c #AEAEAE",
"=	c #AAAAAA",
"-	c #A8A8A8",
";	c #ACACAC",
">	c #FEFEFE",
",	c #FFFFFF",
"'	c #FDFDFD",
")	c #FCFCFC",
"!	c #FBFBFB",
"~	c #FAFAFA",
"{	c #F9F9F9",
"]	c #F7F7F7",
"^	c #F6F6F6",
"/	c #F4F4F4",
"(	c #F8F8F8",
"_	c #D4D4D4",
":	c #B8B8B8",
"<	c #B9B9B9",
"[	c #A7A7A7",
"}	c #979797",
"|	c #A0A0A0",
"1	c #F5F5F5",
"2	c #F3F3F3",
"3	c #F2F2F2",
"4	c #EDEDED",
"5	c #EAEAEA",
"6	c #E7E7E7",
"7	c #E4E4E4",
"8	c #E1E1E1",
"9	c #ABABAB",
"0	c #EFEFEF",
"a	c #A9A9A9",
"b	c #DEDEDE",
"c	c #DADADA",
"d	c #D7D7D7",
"e	c #B7B7B7",
"f	c #B5B5B5",
"g	c #F1F1F1",
"h	c #F0F0F0",
"i	c #EEEEEE",
"                        ",
" .+++++++@#$@#$@#.      ",
" %%%%%%%%%&$%&$%&$      ",
" *=-------------=#      ",
" ;>,,,,,>')!~{]^/=      ",
" ;>,,,,,>')!{{]^/=      ",
" ;>>,,,>'')!{(]^/=      ",
" ;'>>.+++++++++@#$@#$@#.",
" ;)''%_________%&$%&$%&$",
" ;))):<<<<<<<<<<<<<<<<<:",
" ;!!![$}}}}}}}}}}}}}}}|[",
" ;{~~;'>>,,,,,,,'~{^123;",
" ;{{{;'>(456783,'~{^123;",
" ;]((;'>>,,,,,,,'~{^123;",
" 90^];''>>,,,,,>'{{^123;",
" .a;;;''278bcd4>){{^123;",
"     ;)'''>>>>>'){{^133;",
"     ;e;;;;;;;;;;;;;;;f;",
"     ;{{{{{{{{{{(^13gh0;",
"     ;(({{{{{{{{(113g0i;",
"     ;](((((((((]1/ghii;",
"     ;^]]]]]((]]^/2hhi4;",
"     ;7^^]]]]]]]^23h04.9",
"     .9;;;;;;;;;;;;;;;;."};
