/* XPM */ 
static const char * Trash_xpm[] = {
"24 24 306 2",
"  	c #d1d1d5d5d1d1",
"! 	c black",
"# 	c #70708E",
"$ 	c #6E6E90",
"% 	c #6F6F90",
"& 	c #6F6F8F",
"' 	c #707090",
"( 	c #7C7C9B",
") 	c #8B8BAA",
"* 	c #9696B5",
"+ 	c #9D9DBC",
", 	c #A1A1C0",
"- 	c #A2A2C1",
". 	c #A0A0BF",
"0 	c #9898B7",
"1 	c #9292B1",
"2 	c #A5A5C5",
"3 	c #B2B2D1",
"4 	c #9494B4",
"5 	c #797999",
"6 	c #6E6E8E",
"7 	c #767697",
"8 	c #9393B3",
"9 	c #AEAECD",
": 	c #C5C5E4",
"; 	c #CCCCEA",
"< 	c #C9C9E7",
"= 	c #C4C4E3",
"> 	c #BEBEDC",
"? 	c #B7B7D6",
"@ 	c #B0B0CF",
"A 	c #A8A8C7",
"B 	c #A0A0C0",
"C 	c #9999B8",
"D 	c #9191B0",
"E 	c #BBBBDA",
"F 	c #B0B0D0",
"G 	c #A4A4C4",
"H 	c #8F8FAF",
"I 	c #767696",
"J 	c #B6B6D5",
"K 	c #BDBDDC",
"L 	c #C1C1E0",
"M 	c #C4C4E2",
"N 	c #C2C2E0",
"O 	c #B8B8D7",
"P 	c #ACACCB",
"Q 	c #A5A5C4",
"R 	c #9D9DBD",
"S 	c #8E8EAE",
"T 	c #A2A2C2",
"U 	c #B3B3D3",
"V 	c #AAAACA",
"W 	c #9898B8",
"X 	c #9090B0",
"Y 	c #7C7C9C",
"Z 	c #717191",
"[ 	c #A7A7C5",
"] 	c #B7B7D5",
"^ 	c #BABAD9",
"_ 	c #BCBCDA",
"` 	c #ADADCC",
"a 	c #A7A7C6",
"b 	c #9A9AB9",
"c 	c #9393B2",
"d 	c #8B8BAB",
"e 	c #9E9EBD",
"f 	c #ABABCB",
"g 	c #9A9ABA",
"h 	c #A9A9CC",
"i 	c #B5B5DD",
"j 	c #BABACF",
"k 	c #B3B3D0",
"l 	c #AFAFCE",
"m 	c #B4B4D2",
"n 	c #A1A1C1",
"o 	c #9B9BBB",
"p 	c #9595B4",
"q 	c #8787A7",
"r 	c #CACAEB",
"s 	c #D2D2F6",
"t 	c #CBCBF2",
"u 	c #B1B1D9",
"v 	c #ACACC2",
"w 	c #E3E3F4",
"x 	c #BDBDD9",
"y 	c #ABABCA",
"z 	c #AAAAC9",
"{ 	c #9F9FBC",
"| 	c #ACACC5",
"} 	c #BBBBD1",
"~ 	c #CDCDE1",
" !	c #E3E3F7",
"!!	c #E7E7FF",
"#!	c #E2E2FE",
"$!	c #DBDBFB",
"%!	c #D3D3F6",
"&!	c #A1A1C7",
"'!	c #9191AB",
"(!	c #E7E7F7",
")!	c #DCDCF3",
"*!	c #CBCBEA",
"+!	c #B2B2D2",
",!	c #C4C4D9",
"-!	c #DADAE6",
".!	c #DDDDE8",
"0!	c #E3E3EC",
"1!	c #ECECF2",
"2!	c #F8F8FA",
"3!	c #FDFDFF",
"4!	c #F9F9FF",
"5!	c #F4F4FF",
"6!	c #F0F0FF",
"7!	c #EBEBFF",
"8!	c #E6E6FF",
"9!	c #E1E1FE",
":!	c #DADAFB",
";!	c #CACAF1",
"<!	c #9191B4",
"=!	c #777796",
">!	c #E6E6F6",
"?!	c #CECEED",
"@!	c #B8B8D8",
"A!	c #C9C9DC",
"B!	c white",
"C!	c #FEFEFF",
"D!	c #FCFCFF",
"E!	c #F5F7FC",
"F!	c #B5DBC7",
"G!	c #85C59D",
"H!	c #88C3A1",
"I!	c #C2D7DB",
"J!	c #E0E0FE",
"K!	c #C8D2E8",
"L!	c #B3C5D5",
"M!	c #C9C9F1",
"N!	c #8080A2",
"O!	c #D4D4E7",
"P!	c #B0B0CB",
"Q!	c #D2EADC",
"R!	c #45B064",
"S!	c #219F42",
"T!	c #1F9A3D",
"U!	c #1E9639",
"V!	c #1E9236",
"W!	c #76B390",
"X!	c #39964D",
"Y!	c #B4C4D7",
"Z!	c #C5C5ED",
"[!	c #BABAD1",
"]!	c #F6F6F9",
"^!	c #D8EDE1",
"_!	c #2FA851",
"`!	c #33A653",
"a!	c #67B881",
"b!	c #5CB075",
"c!	c #22943A",
"d!	c #1A8D2F",
"e!	c #19892B",
"f!	c #1E872E",
"g!	c #CACCF0",
"h!	c #B4B4DB",
"i!	c #A1A1BB",
"j!	c #DFDFE8",
"k!	c #FAFAFE",
"l!	c #57B873",
"m!	c #7AC393",
"n!	c #E8EDF7",
"o!	c #ECECFF",
"p!	c #E8E8FF",
"q!	c #A9CBC1",
"r!	c #178426",
"s!	c #3A904B",
"t!	c #A2A2C8",
"u!	c #8888A6",
"v!	c #C7C7D8",
"w!	c #FAFAFF",
"x!	c #D5E9E1",
"y!	c #78C291",
"z!	c #F0F0FE",
"{!	c #EDEDFF",
"|!	c #E9E9FF",
"}!	c #C5D7DD",
"~!	c #2E9241",
" #	c #188527",
"!#	c #22852F",
"##	c #659F7B",
"$#	c #C6C6EF",
"%#	c #9090B4",
"&#	c #737393",
"'#	c #D9D9F1",
"(#	c #B1B1C8",
")#	c #F6F6FF",
"*#	c #BBDCCD",
"+#	c #E8EDF8",
",#	c #EAEAFF",
"-#	c #CCD9E7",
".#	c #CBD5E8",
"0#	c #D4D6F5",
"1#	c #D1D1F5",
"2#	c #C0C6E7",
"3#	c #C3C3ED",
"4#	c #7F7FA1",
"5#	c #C5C5DF",
"6#	c #9D9DB9",
"7#	c #F1F1FF",
"8#	c #E3EAF5",
"9#	c #CAE0E0",
":#	c #B5D7CF",
";#	c #A1CDBC",
"<#	c #90C5AC",
"=#	c #D4DBF3",
">#	c #D9D9FA",
"?#	c #C8CAEE",
"@#	c #87AFA8",
"A#	c #BCBCE8",
"B#	c #ADADCA",
"C#	c #8C8CAC",
"D#	c #ECECFE",
"E#	c #89CAA7",
"F#	c #23A549",
"G#	c #22A145",
"H#	c #259F45",
"I#	c #A2C8C1",
"J#	c #D3D3F7",
"K#	c #CDCDF3",
"L#	c #60A27A",
"M#	c #98B2BD",
"N#	c #ABABD6",
"O#	c #9797B5",
"P#	c #8888A8",
"Q#	c #DEDEF6",
"R#	c #63BA84",
"S#	c #209D40",
"T#	c #40A55E",
"U#	c #BACDDA",
"V#	c #529D6A",
"W#	c #3F9255",
"X#	c #BBBCE9",
"Y#	c #9999C2",
"Z#	c #8181A0",
"[#	c #CECEEB",
"]#	c #3DAA5F",
"^#	c #1F993B",
"_#	c #1D9437",
"`#	c #1C9032",
"a#	c #208E34",
"b#	c #188829",
"c#	c #298A3A",
"d#	c #A7B4D0",
"e#	c #B6B6E6",
"f#	c #8989B0",
"g#	c #C9C9E8",
"h#	c #D2D8F2",
"i#	c #2AA04A",
"j#	c #8BBCAB",
"k#	c #389E54",
"l#	c #1A8C2E",
"m#	c #19882B",
"n#	c #4D9765",
"o#	c #AAB6D4",
"p#	c #B1B1E3",
"q#	c #7B7B9E",
"r#	c #B5B5D5",
"s#	c #B4B4D6",
"t#	c #B2C9D5",
"u#	c #A4C3C7",
"v#	c #CECEF4",
"w#	c #C9CAF0",
"x#	c #A1BAC6",
"y#	c #92B2B5",
"z#	c #ADB9D6",
"{#	c #BBBBE8",
"|#	c #B6B6E5",
"}#	c #B0B0E2",
"~#	c #A0A0D0",
" $	c #9C9CBC",
"!$	c #AAAACE",
"#$	c #C4C4EE",
"$$	c #C0C0EC",
"%$	c #BDBDE9",
"&$	c #B8B8E7",
"'$	c #B4B4E4",
"($	c #AEAEE0",
")$	c #9494C0",
"*$	c #737394",
"+$	c #A3A3C3",
",$	c #A4A4CA",
"-$	c #C1C1EC",
".$	c #BFBFEB",
"0$	c #BCBCE9",
"1$	c #B9B9E7",
"2$	c #B5B5E5",
"3$	c #A7A7D6",
"4$	c #9090B9",
"5$	c #777799",
"6$	c #8383A3",
"7$	c #8484A4",
"8$	c #A0A0C8",
"9$	c #B9B9E6",
":$	c #B1B1DD",
";$	c #A6A6D1",
"<$	c #9898C1",
"=$	c #8989AF",
">$	c #78789A",
"?$	c #70708F",
"                # $ % & & & & & & ' &           ",
"      $ # % ( ) * + , - . + 0 1 2 3 4 5 &       ",
"  6 7 8 9 : ; < = > ? @ A B C D 2 E F G H I &   ",
"& D J K L M M N > O 3 P Q R * S T U V B W X Y Z ",
"% [ 3 ] ^ _ _ ^ ? 3 ` a B b c d e f T g g h i ' ",
"& j k l 3 m m 3 l P a n o p S q W 9 _ r s t u ' ",
"& v w x y y y z A Q . o { | } ~  !!!#!$!%!t &!& ",
"  '!(!)!*!+!,!-!.!0!1!2!3!4!5!6!7!8!9!:!s ;!<!& ",
"  =!>!)!?!@!A!B!B!B!B!C!D!E!F!G!H!I!J!K!L!M!N!  ",
"  & O!)!?!@!P!B!B!B!B!C!Q!R!S!T!U!V!W!X!Y!Z!Z   ",
"  & [!)!?!@!B ]!B!C!C!^!_!`!a!b!c!d!e!f!g!h!&   ",
"  & i!)!?!@!B j!C!3!k!l!m!n!o!p!q!e!r!s!;!t!&   ",
"    u!)!?!@!B v!w!4!x!y!z!{!|!}!~! #!###$#%##   ",
"    &#'#?!@!B (#)#5!*#+#{!,#8!-#.#0#1#2#3#4#    ",
"    & 5#?!@!B 6#7#6!8#9#:#;#<#=#>#s ?#@#A#Z     ",
"    & B#?!@!B C#D#7!E#F#G#H#I#>#J#K#L#M#N#&     ",
"    $ O#?!@!B P#Q#8!R#G#S#T#U#J#Y!V#W#X#Y#'     ",
"      Z#?!@!B P#[##!]#S#^#_#`#a#b#c#d#e#f#$     ",
"      ' g#@!B P#L h#i#j#k#`#l#m#n#o#e#p#q#      ",
"      ' r#@!B P#s#t#u#v#w#x#y#z#{#|#}#~#'       ",
"      &  $@!B P#!$t M!$##$$$%$&$'$($)$*$        ",
"        &#+$B P#,$3#-$.$0$1$2$3$4$5$&           ",
"          ' 6$7$8$9$:$;$<$=$>$& &               ",
"            # & ' ?$?$& $                       "};
