/* XPM */
static const char * Monitor_xpm[] = {
"16 16 158 2",
"  	c None",
". 	c #D9D9D9",
"+ 	c #B6BDC1",
"@ 	c #AEB7BB",
"# 	c #A6B0B6",
"$ 	c #9FAAAF",
"% 	c #97A3A8",
"& 	c #8F9CA3",
"* 	c #88959C",
"= 	c #808E95",
"- 	c #78878F",
"; 	c #718088",
"> 	c #697981",
", 	c #62717A",
"' 	c #A3ADB2",
") 	c #E8E9F2",
"! 	c #F9F9FB",
"~ 	c #F1F2F7",
"{ 	c #DFE1EC",
"] 	c #D5D8E6",
"^ 	c #CBCEE1",
"/ 	c #C0C5DB",
"( 	c #B6BAD4",
"_ 	c #ABB0CE",
": 	c #A1A6C8",
"< 	c #788F9E",
"[ 	c #64737B",
"} 	c #9AA4AB",
"| 	c #FBFCFD",
"1 	c #F3F4F8",
"2 	c #EBEDF3",
"3 	c #E2E4EE",
"4 	c #D9DBE8",
"5 	c #CFD2E3",
"6 	c #C5C8DD",
"7 	c #BABED7",
"8 	c #AFB3D0",
"9 	c #A4AACA",
"0 	c #999FC4",
"a 	c #8D94BC",
"b 	c #63737D",
"c 	c #919CA3",
"d 	c #F7F7FA",
"e 	c #EEEFF5",
"f 	c #E5E7F0",
"g 	c #DCDEEB",
"h 	c #D2D5E4",
"i 	c #C8CCDF",
"j 	c #BEC1D9",
"k 	c #B3B8D3",
"l 	c #A8ADCC",
"m 	c #9DA3C6",
"n 	c #9299BF",
"o 	c #868DB8",
"p 	c #62727B",
"q 	c #87949B",
"r 	c #F2F3F7",
"s 	c #E9EAF2",
"t 	c #E0E2ED",
"u 	c #D6D8E7",
"v 	c #CCCFE1",
"w 	c #C1C6DB",
"x 	c #B7BBD5",
"y 	c #ACB1CF",
"z 	c #A1A7C8",
"A 	c #969CC1",
"B 	c #8B92BB",
"C 	c #7F86B3",
"D 	c #63727D",
"E 	c #7E8B93",
"F 	c #ECEDF4",
"G 	c #E3E4EE",
"H 	c #D9DCE9",
"I 	c #D0D2E4",
"J 	c #C6C9DD",
"K 	c #BBBFD7",
"L 	c #B0B5D1",
"M 	c #A5ABCB",
"N 	c #9AA1C4",
"O 	c #8E95BD",
"P 	c #828BB7",
"Q 	c #777FAF",
"R 	c #74828B",
"S 	c #E6E8F1",
"T 	c #DDDFEB",
"U 	c #D3D6E5",
"V 	c #C9CDE0",
"W 	c #BEC3D9",
"X 	c #B5B9D3",
"Y 	c #AAAECD",
"Z 	c #9EA4C7",
"` 	c #939ABF",
" .	c #878EB9",
"..	c #7B84B2",
"+.	c #7078AB",
"@.	c #66777D",
"#.	c #6B7A82",
"$.	c #E1E3ED",
"%.	c #D7D9E7",
"&.	c #CDD0E2",
"*.	c #C3C7DC",
"=.	c #B8BCD5",
"-.	c #ADB2CF",
";.	c #A2A7C9",
">.	c #969DC3",
",.	c #8B93BB",
"'.	c #8087B5",
").	c #747DAE",
"!.	c #6971A6",
"~.	c #66787B",
"{.	c #BCC0D8",
"].	c #D0D3E4",
"^.	c #C7CADE",
"/.	c #B1B6D1",
"(.	c #A6ACCB",
"_.	c #9BA1C5",
":.	c #8F96BE",
"<.	c #848CB7",
"[.	c #7880B0",
"}.	c #6C75AA",
"|.	c #637277",
"1.	c #616D74",
"2.	c #616B71",
"3.	c #616B75",
"4.	c #60739C",
"5.	c #61759B",
"6.	c #61799F",
"7.	c #637EA3",
"8.	c #627177",
"9.	c #667577",
"0.	c #606584",
"a.	c #66689D",
"b.	c #626BA3",
"c.	c #5E636D",
"d.	c #606E87",
"e.	c #5E72A4",
"f.	c #6071A4",
"g.	c #606EA4",
"h.	c #5E6EA1",
"i.	c #606870",
"j.	c #99A3AA",
"k.	c #929DA4",
"l.	c #8B979E",
"m.	c #849199",
"n.	c #7D8B93",
"o.	c #75848D",
"p.	c #6E7E86",
"q.	c #9CA6AD",
"r.	c #95A1A7",
"s.	c #8E9AA1",
"t.	c #79878F",
"u.	c #72818A",
"v.	c #6B7A84",
"w.	c #64747E",
"x.	c #99A4AA",
"y.	c #75858D",
"z.	c #6E7E87",
"A.	c #687881",
". . + @ # $ % & * = - ; > , . . ",
". ' ) ! ~ ) { ] ^ / ( _ : < [ . ",
". } | 1 2 3 4 5 6 7 8 9 0 a b . ",
". c d e f g h i j k l m n o p . ",
". q r s t u v w x y z A B C D . ",
". E F G H I J K L M N O P Q [ . ",
". R S T U V W X Y Z `  ...+.@.. ",
". #.$.%.&.*.=.-.;.>.,.'.).!.~.. ",
". , {.].^.{./.(._.:.<.[.}.< |.. ",
". . 1.2.2.3.4.5.6.7.3.8.9.~.. . ",
". . . . . . 0.a.b.c.. . . . . . ",
". . . . . d.e.f.g.h.i.. . . . . ",
". . . ^.$ j.k.l.m.n.o.p.< . . . ",
". . . ' q.r.s.q = t.u.v.w.. . . ",
". . . $ x.k.l.m.n.y.z.A.< . . . ",
". . . . . . . . . . . . . . . . "};
