/* XPM */
static const char * RemoveIns_xpm[] = {
"24 24 182 2",
"  	c #D1D5D1",
". 	c #D4D8D4",
"+ 	c #D5D9D5",
"@ 	c #D7DBD7",
"# 	c #D9DDD9",
"$ 	c #DCDFDC",
"% 	c #DDE0DD",
"& 	c #E0E2E0",
"* 	c #E2E4E2",
"= 	c #E3E6E3",
"- 	c #E4E6E4",
"; 	c #E2E5E2",
"> 	c #E0E3E0",
", 	c #DEE1DE",
"' 	c #D9DCD9",
") 	c #D3D7D3",
"! 	c #D1D5D1",
"~ 	c #D7DAD7",
"{ 	c #DADDDA",
"] 	c #DFE2DF",
"^ 	c #E4E7E4",
"/ 	c #E6E8E6",
"( 	c #E8EAE8",
"_ 	c #E7E9E7",
": 	c #E3E5E3",
"< 	c #DADEDA",
"[ 	c #D8DBD8",
"} 	c #D6D9D6",
"| 	c #E1E3E1",
"1 	c #E9EBE9",
"2 	c #EBECEB",
"3 	c #ECEEEC",
"4 	c #ECEDEC",
"5 	c #EAECEA",
"6 	c #E5E7E5",
"7 	c #DBDEDB",
"8 	c #EDEFED",
"9 	c #EEEFEE",
"0 	c #EAEBEA",
"a 	c #D2D5D2",
"b 	c #D0D4D0",
"c 	c #EBEDEB",
"d 	c #EEF0EE",
"e 	c #D5D8D5",
"f 	c #D4D6D4",
"g 	c #D6DAD6",
"h 	c #CED2CE",
"i 	c #CDD1CD",
"j 	c #EDEEED",
"k 	c #DADCDA",
"l 	c #CFD1CF",
"m 	c #A9AAA9",
"n 	c #B1B1B1",
"o 	c #CACDCA",
"p 	c #CCD0CC",
"q 	c #CFD3CF",
"r 	c #CBCFCB",
"s 	c #BCBDBC",
"t 	c #AAAAAA",
"u 	c #B3B3B3",
"v 	c #BEBEBE",
"w 	c #C3C4C4",
"x 	c #BCBCBC",
"y 	c #B2B2B2",
"z 	c #B9BBBA",
"A 	c #C5C8C5",
"B 	c #C9CDC9",
"C 	c #C8CCC8",
"D 	c #C7CBC7",
"E 	c #E1E4E1",
"F 	c #D9DAD9",
"G 	c #E7E8E7",
"H 	c #C9CAC9",
"I 	c #BDBDBD",
"J 	c #CBCACB",
"K 	c #D9D9D9",
"L 	c #E3E3E3",
"M 	c #E6E6E6",
"N 	c #E0E0E0",
"O 	c #D6D6D6",
"P 	c #CDCECE",
"Q 	c #CDCDCD",
"R 	c #CDCECD",
"S 	c #C5C9C5",
"T 	c #B8B8B8",
"U 	c #E0E1E0",
"V 	c #DFE0DE",
"W 	c #E2E3E2",
"X 	c #DDDEDD",
"Y 	c #DBDCDB",
"Z 	c #D8D9D8",
"` 	c #D5D6D5",
" .	c #D3D4D3",
"..	c #CDCFCD",
"+.	c #C3C6C3",
"@.	c #C2C2C2",
"#.	c #E1E2E0",
"$.	c #D7D7D7",
"%.	c #DBDBDB",
"&.	c #DFDFDF",
"*.	c #DDDCDC",
"=.	c #DADADA",
"-.	c #D4D4D4",
";.	c #D3D3D3",
">.	c #D6D7D6",
",.	c #C1C5C1",
"'.	c #C0C4C0",
").	c #BBBCBB",
"!.	c #BABABA",
"~.	c #BFC0BF",
"{.	c #B5B5B5",
"].	c #CBCBCB",
"^.	c #D2D3D2",
"/.	c #DCDEDC",
"(.	c #D8DCD8",
"_.	c #CFD0CF",
":.	c #E3E4E3",
"<.	c #DDDDDD",
"[.	c #DCDCDC",
"}.	c #BFC3BF",
"|.	c #BEC1BE",
"1.	c #9D9D9D",
"2.	c #ADACAD",
"3.	c #BBBBBB",
"4.	c #E2E2E2",
"5.	c #DBDDDB",
"6.	c #D7D6D6",
"7.	c #E9E9E9",
"8.	c #CED0CE",
"9.	c #BCC0BC",
"0.	c #B7B7B7",
"a.	c #D1D0D1",
"b.	c #DEDEDE",
"c.	c #E2E3E3",
"d.	c #E6E6E7",
"e.	c #EAEAEA",
"f.	c #E5E6E5",
"g.	c #D4D7D4",
"h.	c #CFD2D0",
"i.	c #D0D0D0",
"j.	c #E7E7E7",
"k.	c #E4E4E4",
"l.	c #DEDEDF",
"m.	c #C9CBC9",
"n.	c #BABEBA",
"o.	c #DDDDDE",
"p.	c #E2E2E3",
"q.	c #E4E5E4",
"r.	c #D2D6D2",
"s.	c #CED1CE",
"t.	c #C9C9C9",
"u.	c #DDDDDC",
"v.	c #C4C7C4",
"w.	c #B9BCB9",
"x.	c #C3C3C3",
"y.	c #D8D8D8",
"z.	c #BFC2BF",
"A.	c #B8BBB8",
"B.	c #DFE0DF",
"C.	c #D5D5D5",
"D.	c #BBBFBB",
"E.	c #B7BBB7",
"F.	c #D7D9D7",
"G.	c #D1D1D1",
"H.	c #CCCFCC",
"I.	c #C5C6C5",
"J.	c #D9D8D9",
"K.	c #DADBDA",
"L.	c #D1D2D1",
"M.	c #B6BAB6",
"N.	c #C7CAC7",
"O.	c #D1D3D1",
"P.	c #CCCDCC",
"Q.	c #B5B9B5",
"R.	c #C6CAC6",
"S.	c #C4C8C4",
"T.	c #C2C5C2",
"U.	c #BEC2BE",
"V.	c #BABDBA",
"W.	c #C3C7C3",
"X.	c #CACECA",
"Y.	c #BDC0BD",
". + @ # $ % & * = - - = ; > , $ ' @ + ) ! ! ! ! ",
"+ ~ { $ ] * ^ / ( ( ( _ / : > % < [ } ) ! ! ! ! ",
"~ { % | - _ 1 2 3 3 4 5 ( 6 * , 7 [ + ) ! ! ! ! ",
"' $ | 6 ( 5 3 8 9 9 8 4 0 / * , < @ . a ! ! ! b ",
"7 ] - ( c 3 9 d d 9 8 c 1 6 | e f g ) ! ! b h i ",
"% * _ 5 j 9 d d 9 8 4 1 _ k l m n o p ! q p r r ",
"] - 1 3 9 d d d j c 1 e s t u v w x y z A B C D ",
"E / 5 8 d F 9 j 5 G H I J K L M L N O P Q R S S ",
"; _ c 8 d T U 5 _ : k F V | W U X Y Z `  ...+.+.",
": _ c 8 9 t @.#.: ] 7 $.%.&.*.=.$.-.;.%.>.,.'.'.",
": _ ).!.~.{.].^./.7 (._.K :.L N <.=.[.[.^.}.|.|.",
"* / 1.2.3.].K &.4.5.} _.6.M 7.M L N <.<.8.|.9.9.",
"> - 0.a.%.b.c.d.e.f.g.h.i.L j.k.4.l.[.%.m.9.n.n.",
", E ;.%.<.o.p.j.q.e r.s.t.b.k.4.&.u.=.%.v.n.w.w.",
"$ , ] ] , [.4.L + r.! s.x.K 4.&.<.=.y.K z.w.A.A.",
"{ 7 $ 7 < =.B.} r.! ! q v C.b.u.=.y.$.$.D.A.E.E.",
"[ (.(.[ ~ F.. r.! ! ! q !.G.%.K $.C.-.C.w.E.E.E.",
"} } } e g.r.! ! b q i H.I.J.K.K $.O C.L.A.M.M.E.",
"g.g.) r.! ! b i H.B C N.O.%.<.[.=.K y.P.M.Q.E.A.",
"r.r.! ! ! q H.B N.R.S.+.T.'.U.9.n.V.A.M.Q.M.E.w.",
"! ! ! ! h H.B R.W.T.'.}.|.9.D.V.w.A.E.Q.Q.E.A.V.",
"! ! ! b p X.N.S.,.}.|.9.D.V.w.A.E.M.Q.Q.E.A.V.D.",
"! ! ! h H.B R.W.'.U.Y.D.V.A.E.E.M.M.M.E.A.V.D.|.",
"! ! b h H.B R.W.'.U.9.n.V.A.E.E.E.E.A.w.V.D.|.'."};
